%YAML 1.1
%TAG !u! tag:unity3d.com,2011:
--- !u!74 &7400000
AnimationClip:
  m_ObjectHideFlags: 0
  m_CorrespondingSourceObject: {fileID: 0}
  m_PrefabInstance: {fileID: 0}
  m_PrefabAsset: {fileID: 0}
  m_Name: New Animation
  serializedVersion: 7
  m_Legacy: 0
  m_Compressed: 0
  m_UseHighQualityCurve: 1
  m_RotationCurves: []
  m_CompressedRotationCurves: []
  m_EulerCurves: []
  m_PositionCurves: []
  m_ScaleCurves: []
  m_FloatCurves: []
  m_PPtrCurves:
  - serializedVersion: 2
    curve:
    - time: 0
      value: {fileID: 74862055, guid: 0b582c61b9f10d9499bfcc33d659858c, type: 3}
    - time: 0.083333336
      value: {fileID: -1156787564, guid: 0b582c61b9f10d9499bfcc33d659858c, type: 3}
    - time: 0.16666667
      value: {fileID: 1027202577, guid: 0b582c61b9f10d9499bfcc33d659858c, type: 3}
    - time: 0.25
      value: {fileID: 2010236087, guid: 0b582c61b9f10d9499bfcc33d659858c, type: 3}
    - time: 0.33333334
      value: {fileID: 2041868636, guid: 0b582c61b9f10d9499bfcc33d659858c, type: 3}
    - time: 0.41666666
      value: {fileID: -496674075, guid: 0b582c61b9f10d9499bfcc33d659858c, type: 3}
    - time: 0.5
      value: {fileID: 194833683, guid: 0b582c61b9f10d9499bfcc33d659858c, type: 3}
    - time: 0.5833333
      value: {fileID: 707821458, guid: 0b582c61b9f10d9499bfcc33d659858c, type: 3}
    - time: 0.6666667
      value: {fileID: 438992602, guid: 0b582c61b9f10d9499bfcc33d659858c, type: 3}
    - time: 0.75
      value: {fileID: -1440458011, guid: 0b582c61b9f10d9499bfcc33d659858c, type: 3}
    - time: 0.8333333
      value: {fileID: -277762285, guid: 0b582c61b9f10d9499bfcc33d659858c, type: 3}
    - time: 0.9166667
      value: {fileID: 489787079, guid: 0b582c61b9f10d9499bfcc33d659858c, type: 3}
    - time: 1
      value: {fileID: 1685941471, guid: 0b582c61b9f10d9499bfcc33d659858c, type: 3}
    - time: 1.0833334
      value: {fileID: 63284000, guid: 0b582c61b9f10d9499bfcc33d659858c, type: 3}
    - time: 1.1666666
      value: {fileID: -2116884166, guid: 0b582c61b9f10d9499bfcc33d659858c, type: 3}
    - time: 1.25
      value: {fileID: 502827132, guid: 0b582c61b9f10d9499bfcc33d659858c, type: 3}
    - time: 1.3333334
      value: {fileID: -2094840126, guid: 0b582c61b9f10d9499bfcc33d659858c, type: 3}
    - time: 1.4166666
      value: {fileID: 788001094, guid: 0b582c61b9f10d9499bfcc33d659858c, type: 3}
    - time: 1.5
      value: {fileID: -34019553, guid: 0b582c61b9f10d9499bfcc33d659858c, type: 3}
    - time: 1.5833334
      value: {fileID: 1119482619, guid: 0b582c61b9f10d9499bfcc33d659858c, type: 3}
    - time: 1.6666666
      value: {fileID: 629240211, guid: 0b582c61b9f10d9499bfcc33d659858c, type: 3}
    - time: 1.75
      value: {fileID: -1121088551, guid: 0b582c61b9f10d9499bfcc33d659858c, type: 3}
    - time: 1.8333334
      value: {fileID: -456677701, guid: 0b582c61b9f10d9499bfcc33d659858c, type: 3}
    - time: 1.9166666
      value: {fileID: -677950411, guid: 0b582c61b9f10d9499bfcc33d659858c, type: 3}
    - time: 2
      value: {fileID: -2137257480, guid: 0b582c61b9f10d9499bfcc33d659858c, type: 3}
    - time: 2.0833333
      value: {fileID: -289464525, guid: 0b582c61b9f10d9499bfcc33d659858c, type: 3}
    - time: 2.1666667
      value: {fileID: -1991877520, guid: 0b582c61b9f10d9499bfcc33d659858c, type: 3}
    - time: 2.25
      value: {fileID: -364118735, guid: 0b582c61b9f10d9499bfcc33d659858c, type: 3}
    - time: 2.3333333
      value: {fileID: 1634725596, guid: 0b582c61b9f10d9499bfcc33d659858c, type: 3}
    - time: 2.4166667
      value: {fileID: -1228241631, guid: 0b582c61b9f10d9499bfcc33d659858c, type: 3}
    - time: 2.5
      value: {fileID: 2023895558, guid: 0b582c61b9f10d9499bfcc33d659858c, type: 3}
    - time: 2.5833333
      value: {fileID: 252216312, guid: 0b582c61b9f10d9499bfcc33d659858c, type: 3}
    - time: 2.6666667
      value: {fileID: -1962472872, guid: 0b582c61b9f10d9499bfcc33d659858c, type: 3}
    - time: 2.75
      value: {fileID: 494507261, guid: 0b582c61b9f10d9499bfcc33d659858c, type: 3}
    - time: 2.8333333
      value: {fileID: 1842318185, guid: 0b582c61b9f10d9499bfcc33d659858c, type: 3}
    - time: 2.9166667
      value: {fileID: 102794912, guid: 0b582c61b9f10d9499bfcc33d659858c, type: 3}
    - time: 3
      value: {fileID: 516672977, guid: 0b582c61b9f10d9499bfcc33d659858c, type: 3}
    - time: 3.0833333
      value: {fileID: -1644180495, guid: 0b582c61b9f10d9499bfcc33d659858c, type: 3}
    - time: 3.1666667
      value: {fileID: 791415933, guid: 0b582c61b9f10d9499bfcc33d659858c, type: 3}
    - time: 3.25
      value: {fileID: 1122763807, guid: 0b582c61b9f10d9499bfcc33d659858c, type: 3}
    - time: 3.3333333
      value: {fileID: 537109530, guid: 0b582c61b9f10d9499bfcc33d659858c, type: 3}
    - time: 3.4166667
      value: {fileID: 2057402457, guid: 0b582c61b9f10d9499bfcc33d659858c, type: 3}
    - time: 3.5
      value: {fileID: 2082261684, guid: 0b582c61b9f10d9499bfcc33d659858c, type: 3}
    - time: 3.5833333
      value: {fileID: 1451923786, guid: 0b582c61b9f10d9499bfcc33d659858c, type: 3}
    - time: 3.6666667
      value: {fileID: -1356460877, guid: 0b582c61b9f10d9499bfcc33d659858c, type: 3}
    attribute: m_Sprite
    path: 
    classID: 212
    script: {fileID: 0}
    flags: 2
  m_SampleRate: 12
  m_WrapMode: 0
  m_Bounds:
    m_Center: {x: 0, y: 0, z: 0}
    m_Extent: {x: 0, y: 0, z: 0}
  m_ClipBindingConstant:
    genericBindings:
    - serializedVersion: 2
      path: 0
      attribute: 0
      script: {fileID: 0}
      typeID: 212
      customType: 23
      isPPtrCurve: 1
      isIntCurve: 0
      isSerializeReferenceCurve: 0
    pptrCurveMapping:
    - {fileID: 74862055, guid: 0b582c61b9f10d9499bfcc33d659858c, type: 3}
    - {fileID: -1156787564, guid: 0b582c61b9f10d9499bfcc33d659858c, type: 3}
    - {fileID: 1027202577, guid: 0b582c61b9f10d9499bfcc33d659858c, type: 3}
    - {fileID: 2010236087, guid: 0b582c61b9f10d9499bfcc33d659858c, type: 3}
    - {fileID: 2041868636, guid: 0b582c61b9f10d9499bfcc33d659858c, type: 3}
    - {fileID: -496674075, guid: 0b582c61b9f10d9499bfcc33d659858c, type: 3}
    - {fileID: 194833683, guid: 0b582c61b9f10d9499bfcc33d659858c, type: 3}
    - {fileID: 707821458, guid: 0b582c61b9f10d9499bfcc33d659858c, type: 3}
    - {fileID: 438992602, guid: 0b582c61b9f10d9499bfcc33d659858c, type: 3}
    - {fileID: -1440458011, guid: 0b582c61b9f10d9499bfcc33d659858c, type: 3}
    - {fileID: -277762285, guid: 0b582c61b9f10d9499bfcc33d659858c, type: 3}
    - {fileID: 489787079, guid: 0b582c61b9f10d9499bfcc33d659858c, type: 3}
    - {fileID: 1685941471, guid: 0b582c61b9f10d9499bfcc33d659858c, type: 3}
    - {fileID: 63284000, guid: 0b582c61b9f10d9499bfcc33d659858c, type: 3}
    - {fileID: -2116884166, guid: 0b582c61b9f10d9499bfcc33d659858c, type: 3}
    - {fileID: 502827132, guid: 0b582c61b9f10d9499bfcc33d659858c, type: 3}
    - {fileID: -2094840126, guid: 0b582c61b9f10d9499bfcc33d659858c, type: 3}
    - {fileID: 788001094, guid: 0b582c61b9f10d9499bfcc33d659858c, type: 3}
    - {fileID: -34019553, guid: 0b582c61b9f10d9499bfcc33d659858c, type: 3}
    - {fileID: 1119482619, guid: 0b582c61b9f10d9499bfcc33d659858c, type: 3}
    - {fileID: 629240211, guid: 0b582c61b9f10d9499bfcc33d659858c, type: 3}
    - {fileID: -1121088551, guid: 0b582c61b9f10d9499bfcc33d659858c, type: 3}
    - {fileID: -456677701, guid: 0b582c61b9f10d9499bfcc33d659858c, type: 3}
    - {fileID: -677950411, guid: 0b582c61b9f10d9499bfcc33d659858c, type: 3}
    - {fileID: -2137257480, guid: 0b582c61b9f10d9499bfcc33d659858c, type: 3}
    - {fileID: -289464525, guid: 0b582c61b9f10d9499bfcc33d659858c, type: 3}
    - {fileID: -1991877520, guid: 0b582c61b9f10d9499bfcc33d659858c, type: 3}
    - {fileID: -364118735, guid: 0b582c61b9f10d9499bfcc33d659858c, type: 3}
    - {fileID: 1634725596, guid: 0b582c61b9f10d9499bfcc33d659858c, type: 3}
    - {fileID: -1228241631, guid: 0b582c61b9f10d9499bfcc33d659858c, type: 3}
    - {fileID: 2023895558, guid: 0b582c61b9f10d9499bfcc33d659858c, type: 3}
    - {fileID: 252216312, guid: 0b582c61b9f10d9499bfcc33d659858c, type: 3}
    - {fileID: -1962472872, guid: 0b582c61b9f10d9499bfcc33d659858c, type: 3}
    - {fileID: 494507261, guid: 0b582c61b9f10d9499bfcc33d659858c, type: 3}
    - {fileID: 1842318185, guid: 0b582c61b9f10d9499bfcc33d659858c, type: 3}
    - {fileID: 102794912, guid: 0b582c61b9f10d9499bfcc33d659858c, type: 3}
    - {fileID: 516672977, guid: 0b582c61b9f10d9499bfcc33d659858c, type: 3}
    - {fileID: -1644180495, guid: 0b582c61b9f10d9499bfcc33d659858c, type: 3}
    - {fileID: 791415933, guid: 0b582c61b9f10d9499bfcc33d659858c, type: 3}
    - {fileID: 1122763807, guid: 0b582c61b9f10d9499bfcc33d659858c, type: 3}
    - {fileID: 537109530, guid: 0b582c61b9f10d9499bfcc33d659858c, type: 3}
    - {fileID: 2057402457, guid: 0b582c61b9f10d9499bfcc33d659858c, type: 3}
    - {fileID: 2082261684, guid: 0b582c61b9f10d9499bfcc33d659858c, type: 3}
    - {fileID: 1451923786, guid: 0b582c61b9f10d9499bfcc33d659858c, type: 3}
    - {fileID: -1356460877, guid: 0b582c61b9f10d9499bfcc33d659858c, type: 3}
  m_AnimationClipSettings:
    serializedVersion: 2
    m_AdditiveReferencePoseClip: {fileID: 0}
    m_AdditiveReferencePoseTime: 0
    m_StartTime: 0
    m_StopTime: 3.75
    m_OrientationOffsetY: 0
    m_Level: 0
    m_CycleOffset: 0
    m_HasAdditiveReferencePose: 0
    m_LoopTime: 1
    m_LoopBlend: 0
    m_LoopBlendOrientation: 0
    m_LoopBlendPositionY: 0
    m_LoopBlendPositionXZ: 0
    m_KeepOriginalOrientation: 0
    m_KeepOriginalPositionY: 1
    m_KeepOriginalPositionXZ: 0
    m_HeightFromFeet: 0
    m_Mirror: 0
  m_EditorCurves: []
  m_EulerEditorCurves: []
  m_HasGenericRootTransform: 0
  m_HasMotionFloatCurves: 0
  m_Events: []
